[
    {
        "model": "camp.Grade",
        "pk": 1,
        "fields" : { "name": "K" }
    },
    {
        "model": "camp.Grade",
        "pk": 2,
        "fields": { "name": "1" }
    },
    {
        "model": "camp.Grade",
        "pk": 3,
        "fields": { "name": "2" }
    },
    {
        "model": "camp.Grade",
        "pk": 4,
        "fields": { "name": "3" }
    },
    {
        "model": "camp.Grade",
        "pk": 5,
        "fields": { "name": "4" }
    },
    {
        "model": "camp.Grade",
        "pk": 6,
        "fields": { "name": "5" }
    },
    {
        "model": "camp.Grade",
        "pk": 7,
        "fields": { "name": "6" }
    },
    {
        "model": "camp.Grade",
        "pk": 8,
        "fields": { "name": "7" }
    },
    {
        "model": "camp.Grade",
        "pk": 9,
        "fields": { "name": "8" }
    }
]